<?xml version="1.0" encoding="utf-8"?>
<!-- Generator: Adobe Illustrator 16.0.0, SVG Export Plug-In . SVG Version: 6.00 Build 0)  -->
<!DOCTYPE svg PUBLIC "-//W3C//DTD SVG 1.1//EN" "http://www.w3.org/Graphics/SVG/1.1/DTD/svg11.dtd">
<svg version="1.1" id="Layer_1" xmlns="http://www.w3.org/2000/svg" xmlns:xlink="http://www.w3.org/1999/xlink" x="0px" y="0px"
	 width="116px" height="116px" viewBox="0 0 116 116" enable-background="new 0 0 116 116" xml:space="preserve">
<g>
	<g>
		<linearGradient id="SVGID_1_" gradientUnits="userSpaceOnUse" x1="57.9995" y1="3.7866" x2="57.9995" y2="672.1913">
			<stop  offset="0.354" style="stop-color:#B8529F"/>
			<stop  offset="0.7085" style="stop-color:#02A8CF"/>
			<stop  offset="1" style="stop-color:#73C592"/>
		</linearGradient>
		<circle fill="url(#SVGID_1_)" cx="58" cy="58" r="55"/>
		<path fill="#2A366E" d="M56.193,113.951c-0.667-0.021-1.331-0.054-1.993-0.099l0.133-1.955c0.637,0.043,1.278,0.074,1.921,0.095
			L56.193,113.951z M60.181,113.938l-0.076-1.959c0.644-0.024,1.285-0.061,1.923-0.107l0.145,1.955
			C61.511,113.876,60.848,113.912,60.181,113.938z M50.235,113.445c-0.661-0.092-1.319-0.195-1.972-0.311l0.341-1.93
			c0.63,0.111,1.263,0.211,1.9,0.299L50.235,113.445z M66.135,113.393l-0.283-1.939c0.637-0.093,1.27-0.196,1.898-0.312l0.354,1.928
			C67.451,113.188,66.795,113.296,66.135,113.393z M44.363,112.307c-0.646-0.161-1.289-0.334-1.926-0.519l0.544-1.883
			c0.615,0.178,1.234,0.344,1.858,0.501L44.363,112.307z M71.999,112.216l-0.49-1.898c0.622-0.161,1.241-0.331,1.854-0.514
			l0.559,1.879C73.285,111.871,72.645,112.049,71.999,112.216z M38.648,110.545c-0.627-0.231-1.25-0.473-1.866-0.727l0.746-1.812
			c0.594,0.244,1.192,0.478,1.796,0.699L38.648,110.545z M77.701,110.415l-0.689-1.836c0.601-0.225,1.195-0.461,1.784-0.706
			l0.754,1.809C78.939,109.937,78.323,110.181,77.701,110.415z M33.146,108.174c-0.597-0.296-1.189-0.604-1.774-0.921l0.934-1.723
			c0.564,0.306,1.135,0.602,1.711,0.888L33.146,108.174z M83.171,108.016l-0.885-1.75c0.573-0.289,1.141-0.588,1.701-0.896
			l0.943,1.717C84.351,107.406,83.764,107.715,83.171,108.016z M27.934,105.229c-0.562-0.357-1.116-0.726-1.665-1.104l1.112-1.613
			c0.529,0.364,1.064,0.719,1.606,1.064L27.934,105.229z M88.354,105.045l-1.064-1.646c0.538-0.348,1.07-0.706,1.595-1.072
			l1.123,1.607C89.463,104.313,88.911,104.684,88.354,105.045z M23.068,101.746c-0.52-0.415-1.032-0.84-1.536-1.273l1.277-1.486
			c0.487,0.418,0.981,0.827,1.482,1.229L23.068,101.746z M93.191,101.539l-1.232-1.525c0.5-0.403,0.99-0.815,1.474-1.236
			l1.287,1.479C94.219,100.692,93.709,101.12,93.191,101.539z M18.6,97.768c-0.472-0.468-0.936-0.944-1.391-1.428l1.427-1.344
			c0.44,0.468,0.889,0.927,1.344,1.379L18.6,97.768z M97.633,97.534l-1.387-1.385c0.453-0.454,0.898-0.917,1.335-1.387l1.436,1.334
			C98.564,96.584,98.104,97.062,97.633,97.534z M14.583,93.339c-0.419-0.515-0.83-1.037-1.231-1.567l1.562-1.184
			c0.387,0.511,0.784,1.016,1.188,1.513L14.583,93.339z M101.626,93.081l-1.525-1.23c0.402-0.499,0.796-1.007,1.18-1.521l1.57,1.174
			C102.451,92.037,102.044,92.562,101.626,93.081z M11.058,88.512c-0.362-0.556-0.714-1.119-1.057-1.689l1.68-1.01
			c0.331,0.551,0.671,1.093,1.02,1.629L11.058,88.512z M105.126,88.226l-1.648-1.061c0.347-0.54,0.685-1.087,1.013-1.639l1.686,1
			C105.836,87.1,105.486,87.666,105.126,88.226z M8.069,83.338c-0.3-0.591-0.59-1.187-0.87-1.789l1.777-0.826
			c0.27,0.581,0.55,1.157,0.84,1.727L8.069,83.338z M108.088,83.024l-1.752-0.879c0.287-0.573,0.564-1.153,0.832-1.739l1.783,0.814
			C108.674,81.828,108.387,82.43,108.088,83.024z M5.652,77.876c-0.236-0.62-0.461-1.245-0.675-1.878l1.856-0.629
			c0.207,0.609,0.424,1.213,0.651,1.812L5.652,77.876z M110.479,77.531l-1.838-0.682c0.224-0.603,0.438-1.21,0.642-1.822
			l1.859,0.617C110.932,76.278,110.71,76.907,110.479,77.531z M3.832,72.179c-0.167-0.642-0.324-1.288-0.469-1.939l1.913-0.426
			c0.14,0.628,0.291,1.251,0.453,1.871L3.832,72.179z M112.262,71.816l-1.9-0.482c0.157-0.62,0.305-1.245,0.44-1.874l1.916,0.416
			C112.576,70.526,112.425,71.173,112.262,71.816z M2.634,66.319c-0.098-0.655-0.185-1.314-0.259-1.978l1.948-0.219
			c0.072,0.64,0.155,1.275,0.25,1.907L2.634,66.319z M113.42,65.95l-1.941-0.275c0.091-0.635,0.169-1.271,0.237-1.911l1.949,0.207
			C113.595,64.634,113.513,65.294,113.42,65.95z M2.07,60.366c-0.027-0.66-0.043-1.323-0.048-1.991l1.96-0.015
			c0.005,0.645,0.02,1.287,0.046,1.925L2.07,60.366z M113.945,59.993l-1.959-0.068c0.022-0.639,0.033-1.28,0.033-1.925h1.961
			C113.98,58.667,113.968,59.331,113.945,59.993z M111.956,55.353c-0.031-0.644-0.073-1.284-0.127-1.92l1.953-0.165
			c0.056,0.661,0.1,1.324,0.131,1.991L111.956,55.353z M4.091,54.514L2.135,54.39c0.042-0.666,0.096-1.329,0.162-1.988l1.95,0.194
			C4.184,53.232,4.132,53.872,4.091,54.514z M111.373,49.612c-0.101-0.636-0.211-1.269-0.332-1.897l1.926-0.37
			c0.125,0.65,0.239,1.305,0.342,1.964L111.373,49.612z M4.763,48.783l-1.932-0.332c0.113-0.657,0.237-1.311,0.374-1.96l1.918,0.402
			C4.992,47.52,4.872,48.149,4.763,48.783z M110.18,43.966c-0.167-0.621-0.345-1.238-0.532-1.85l1.873-0.575
			c0.195,0.634,0.379,1.273,0.552,1.917L110.18,43.966z M6.044,43.157L4.16,42.619c0.183-0.641,0.376-1.276,0.582-1.908l1.864,0.604
			C6.408,41.925,6.221,42.539,6.044,43.157z M108.386,38.481c-0.231-0.597-0.473-1.189-0.725-1.776l1.801-0.773
			c0.262,0.608,0.513,1.223,0.752,1.842L108.386,38.481z M7.925,37.697l-1.816-0.737c0.251-0.618,0.513-1.231,0.785-1.839
			l1.789,0.802C8.42,36.509,8.167,37.1,7.925,37.697z M106.019,33.229c-0.294-0.57-0.598-1.133-0.912-1.691l1.709-0.961
			c0.324,0.577,0.64,1.161,0.945,1.751L106.019,33.229z M10.383,32.467l-1.727-0.929c0.316-0.587,0.641-1.168,0.977-1.742
			l1.692,0.989C11.001,31.34,10.687,31.901,10.383,32.467z M103.102,28.257c-0.354-0.535-0.717-1.063-1.089-1.585l1.596-1.139
			c0.386,0.54,0.761,1.088,1.128,1.643L103.102,28.257z M13.385,27.532l-1.617-1.107c0.376-0.55,0.762-1.092,1.157-1.627
			l1.576,1.165C14.121,26.478,13.749,27.002,13.385,27.532z M99.669,23.621c-0.408-0.495-0.825-0.982-1.251-1.461l1.465-1.302
			c0.441,0.497,0.874,1.002,1.298,1.515L99.669,23.621z M16.896,22.946l-1.491-1.272c0.432-0.506,0.873-1.003,1.322-1.494
			l1.445,1.324C17.739,21.977,17.313,22.458,16.896,22.946z M95.763,19.372c-0.458-0.449-0.926-0.889-1.399-1.321l1.318-1.449
			c0.493,0.448,0.977,0.904,1.452,1.37L95.763,19.372z M20.872,18.761l-1.348-1.424c0.482-0.457,0.973-0.904,1.471-1.344
			l1.298,1.469C21.812,17.887,21.338,18.32,20.872,18.761z M91.428,15.561c-0.505-0.397-1.017-0.786-1.534-1.166l1.158-1.581
			c0.537,0.394,1.066,0.796,1.589,1.208L91.428,15.561z M25.268,15.022l-1.188-1.559c0.527-0.402,1.062-0.796,1.604-1.18
			l1.134,1.599C26.294,14.254,25.777,14.634,25.268,15.022z M86.707,12.232c-0.544-0.342-1.094-0.674-1.65-0.997l0.984-1.695
			c0.576,0.334,1.146,0.679,1.709,1.032L86.707,12.232z M30.034,11.773l-1.017-1.676c0.567-0.344,1.141-0.678,1.722-1.002
			l0.955,1.712C31.134,11.119,30.581,11.441,30.034,11.773z M81.66,9.423c-0.578-0.282-1.161-0.554-1.749-0.815l0.797-1.791
			c0.609,0.271,1.214,0.552,1.812,0.844L81.66,9.423z M35.115,9.052l-0.831-1.775c0.6-0.281,1.205-0.551,1.816-0.812l0.769,1.804
			C36.278,8.52,35.694,8.781,35.115,9.052z M76.336,7.172c-0.604-0.218-1.213-0.426-1.826-0.623l0.598-1.866
			c0.637,0.204,1.268,0.419,1.895,0.645L76.336,7.172z M40.456,6.893L39.82,5.038c0.627-0.215,1.26-0.42,1.897-0.613l0.57,1.875
			C41.672,6.487,41.062,6.685,40.456,6.893z M70.806,5.507c-0.621-0.151-1.247-0.292-1.877-0.421l0.395-1.92
			c0.653,0.134,1.303,0.28,1.947,0.437L70.806,5.507z M46.006,5.315l-0.434-1.911c0.646-0.147,1.298-0.282,1.953-0.406l0.365,1.926
			C47.258,5.044,46.63,5.174,46.006,5.315z M65.133,4.447c-0.634-0.084-1.271-0.156-1.912-0.218l0.188-1.951
			c0.664,0.063,1.325,0.139,1.982,0.226L65.133,4.447z M51.694,4.344l-0.227-1.947c0.658-0.076,1.319-0.142,1.985-0.195l0.157,1.954
			C52.968,4.208,52.33,4.27,51.694,4.344z M59.381,3.998C58.921,3.986,58.461,3.98,58,3.98l-0.544,0.003l-0.021-1.96L58,2.02
			c0.478,0,0.955,0.006,1.43,0.018L59.381,3.998z"/>
	</g>
	<path fill="#FFFFFF" d="M41.362,73.71c-0.915,0-1.829,0-2.744,0c0-1.479,0-2.958,0-4.481c-0.7,0-1.375-0.002-2.049,0.002
		c-0.163,0-0.128,0.13-0.128,0.226c-0.001,1.417,0.001,2.835,0.002,4.254c-0.915,0-1.829,0-2.743,0c0-1.509,0-3.019,0-4.562
		c-1.847,0-3.655,0-5.456,0c-0.012-0.048-0.021-0.063-0.019-0.076c0.17-1.012,0.343-2.02,0.507-3.031
		c0.025-0.15,0.115-0.139,0.219-0.139c0.56,0,1.119,0.002,1.679,0c0.77-0.004,1.138-0.378,1.138-1.152c0-3.925,0-7.851,0-11.774
		c0-0.851-0.521-1.411-1.375-1.459c-0.448-0.024-0.897-0.022-1.346-0.028c-0.272-0.004-0.545-0.002-0.821-0.002
		c0-0.98,0-1.928,0-2.91c1.832,0,3.646,0,5.473,0c0-1.514,0-2.995,0-4.477c0.914,0,1.828,0,2.743,0
		c-0.002,1.396-0.001,2.791-0.007,4.186c0,0.165,0.049,0.219,0.216,0.213c0.473-0.016,0.945-0.02,1.418-0.025
		c0.178-0.002,0.355,0,0.517,0c0.019-0.062,0.028-0.078,0.028-0.094c0.002-1.426,0.003-2.852,0.004-4.279c0.915,0,1.829,0,2.744,0
		c-0.003,0.096-0.011,0.189-0.011,0.283c-0.001,1.262,0,2.521,0,3.782c0,0.433,0,0.431,0.445,0.479
		c1.217,0.134,2.413,0.353,3.536,0.875c1.061,0.493,1.887,1.212,2.321,2.325c0.312,0.803,0.389,1.637,0.328,2.484
		c-0.105,1.447-0.777,2.551-2.031,3.291c-0.084,0.05-0.17,0.098-0.287,0.162c0.077,0.037,0.109,0.057,0.145,0.069
		c0.47,0.177,0.962,0.312,1.408,0.536c1.094,0.553,1.875,1.388,2.186,2.609c0.31,1.221,0.241,2.438-0.063,3.646
		c-0.264,1.045-0.763,1.964-1.593,2.674c-0.94,0.806-2.071,1.23-3.26,1.465c-0.947,0.184-1.918,0.258-2.88,0.361
		c-0.208,0.023-0.266,0.09-0.258,0.289c0.014,0.361,0.003,0.726,0.005,1.087C41.354,71.583,41.358,72.646,41.362,73.71z
		 M36.495,65.907c0.847,0,1.65,0.02,2.452-0.005c1.088-0.033,2.17-0.152,3.201-0.529c0.65-0.236,1.261-0.551,1.633-1.173
		c0.726-1.206,0.347-2.733-0.869-3.449c-0.885-0.521-1.87-0.751-2.886-0.798c-1.077-0.049-2.156-0.035-3.234-0.062
		c-0.237-0.008-0.305,0.062-0.303,0.302c0.01,1.812,0.005,3.622,0.005,5.433C36.495,65.713,36.495,65.797,36.495,65.907z
		 M36.496,54.409c0,0.844,0,1.687-0.002,2.53c0,0.131,0.006,0.223,0.183,0.227c1.38,0.022,2.756,0.021,4.105-0.342
		c0.702-0.188,1.311-0.529,1.734-1.109c0.651-0.893,0.43-2.36-0.425-3.074c-0.694-0.578-1.54-0.799-2.408-0.867
		c-0.988-0.078-1.982-0.06-2.974-0.09c-0.192-0.006-0.217,0.086-0.216,0.244C36.498,52.755,36.496,53.582,36.496,54.409z"/>
	<path fill="#FFFFFF" d="M87.818,65.779c0.777,0.779,1.207,1.812,1.207,2.913s-0.43,2.139-1.207,2.917
		c-0.805,0.805-1.859,1.206-2.914,1.206c-1.059,0-2.111-0.401-2.917-1.206l-7.128-7.128l-3.314-3.317
		c-1.206-1.204-1.206-3.166,0-4.37l3.314-3.315l7.128-7.128c1.606-1.608,4.223-1.608,5.831,0c0.777,0.778,1.207,1.814,1.207,2.915
		s-0.43,2.137-1.207,2.915l-0.658-0.658c0.603-0.601,0.935-1.403,0.935-2.257s-0.332-1.654-0.935-2.257s-1.404-0.935-2.256-0.935
		c-0.854,0-1.655,0.332-2.26,0.935l-7.126,7.128l-3.317,3.314c-0.842,0.844-0.842,2.214,0,3.057l3.317,3.315l7.126,7.128
		c0.604,0.602,1.406,0.935,2.26,0.935c0.852,0,1.653-0.333,2.256-0.935c0.603-0.603,0.935-1.404,0.935-2.259
		c0-0.852-0.332-1.653-0.935-2.257L87.818,65.779z M67.732,70.951c-1.245,1.244-3.271,1.244-4.516,0
		c-0.604-0.603-0.935-1.404-0.935-2.259c0-0.852,0.331-1.653,0.935-2.257l5.271-5.271c1.207-1.204,1.207-3.166,0-4.37l-5.271-5.271
		c-0.604-0.601-0.935-1.403-0.935-2.257s0.331-1.654,0.935-2.257c1.244-1.244,3.271-1.244,4.516,0l6.039,6.037l0.658-0.656
		l-6.041-6.039c-1.606-1.608-4.221-1.608-5.828,0c-1.607,1.607-1.607,4.223,0,5.83l5.271,5.271c0.843,0.844,0.843,2.214,0,3.057
		l-5.271,5.271c-1.607,1.607-1.607,4.221,0,5.83c0.804,0.805,1.858,1.206,2.914,1.206s2.11-0.401,2.914-1.206l6.043-6.041
		l-0.658-0.658L67.732,70.951z M78.176,57.451c1.205,1.205,3.166,1.205,4.371,0l5.271-5.271l-0.658-0.658l-5.271,5.271
		c-0.408,0.408-0.95,0.634-1.527,0.634s-1.119-0.226-1.527-0.634l-2.227-2.226l-0.658,0.656L78.176,57.451z M78.176,60.508
		l-2.224,2.225l0.658,0.658l2.224-2.227c0.408-0.407,0.95-0.632,1.527-0.632s1.119,0.225,1.527,0.632l5.271,5.271l0.658-0.656
		l-5.271-5.271C81.342,59.304,79.381,59.304,78.176,60.508z"/>
</g>
</svg>
